{
    "KPlugin": {
        "Description": "Events plugins for KRfb",
        "Description[ca@valencia]": "Connectors d'esdeveniments per al KRfb.",
        "Description[ca]": "Connectors d'esdeveniments per al KRfb.",
        "Description[cs]": "Moduly událostí pro KRfb",
        "Description[da]": "Hændelses-plugins til KRfb",
        "Description[de]": "Ereignis-Module für KRfb",
        "Description[el]": "Πρόσθετα γεγονότων για το KRfb",
        "Description[en_GB]": "Events plugins for KRfb",
        "Description[es]": "Complementos de eventos para KRfb",
        "Description[et]": "KRfb sündmuste pluginad",
        "Description[eu]": "KRfb-rako gertaeren pluginak",
        "Description[fi]": "KRfb:n tapahtumaliitännäinen",
        "Description[fr]": "Modules externes d'évènements pour KRfb",
        "Description[gl]": "Complementos de eventos para KRfb",
        "Description[it]": "Estensioni degli eventi per KRfb",
        "Description[ko]": "KRfb 이벤트 플러그인",
        "Description[nl]": "Plug-ins voor gebeurtenis voor KRfb",
        "Description[nn]": "Hendingstillegg for KRfb",
        "Description[pl]": "Wtyczki wydarzeń dla KRfb",
        "Description[pt]": "'Plugins' de eventos para o KRfb",
        "Description[pt_BR]": "Plugins de evento para o KRfb",
        "Description[sk]": "Doplnky udalostí pre KRfb",
        "Description[sl]": "Vtičniki za dogodke za KRfb",
        "Description[sv]": "Händelseinsticksprogram för Krfb",
        "Description[uk]": "Додатки обробки подій для KRfb",
        "Description[x-test]": "xxEvents plugins for KRfbxx",
        "Description[zh_CN]": "KRfb 事件插件",
        "Description[zh_TW]": "KRfb 的事件外掛程式"
    },
    "X-KDE-ServiceType": "krfb/events"
}
